# Blender v2.90.1 OBJ File: 'schwarminator9000dgfrj bgrdhaoujnpüvgbsdrf_ajkonsfjldveknö (2).blend'
# www.blender.org
mtllib schwarminator9006_handle.mtl
o Cube.001
v -0.403381 -2.486557 -1.125342
v 0.395521 -2.486557 -1.125374
v -0.236377 0.385150 2.147251
v 0.229267 0.385150 2.147458
v -0.253205 -2.826016 -2.219788
v 0.245336 -2.826016 -2.219819
v -0.318745 2.415955 -0.246201
v 0.311615 2.415955 -0.245995
v -0.645194 0.612189 1.532137
v -0.676430 0.316459 0.625957
v -0.535166 -0.142606 0.317775
v -0.514075 -0.445046 0.049665
v -0.513680 -0.810128 -0.241455
v -0.513744 -1.294669 -0.509863
v -0.515422 -1.812861 -0.760996
v -0.506553 -2.211006 -0.902078
v 0.505658 -2.211005 -0.902704
v 0.509428 -1.812861 -0.761021
v 0.507998 -1.294669 -0.509866
v 0.507952 -0.810128 -0.241458
v 0.507954 -0.445186 0.049534
v 0.518273 -0.146532 0.314181
v 0.667926 0.316319 0.625826
v 0.637033 0.612189 1.532139
v -0.261177 -2.259907 -2.055097
v -0.229193 -1.796195 -1.851201
v -0.210320 -1.270902 -1.490476
v -0.242869 -0.882151 -1.110732
v -0.320084 -0.427380 -0.695054
v -0.370017 0.123910 -0.274934
v -0.362320 0.684729 -0.174689
v -0.427693 1.576543 -0.212464
v 0.419518 1.576543 -0.212460
v 0.353810 0.684588 -0.174819
v 0.353120 0.119984 -0.278528
v 0.313956 -0.427520 -0.695184
v 0.237134 -0.882151 -1.110733
v 0.204566 -1.270902 -1.490477
v 0.223190 -1.796195 -1.851224
v 0.260272 -2.259907 -2.055722
v -0.643686 1.722140 0.444895
v 0.673166 1.722140 0.447094
v -0.486071 -2.688076 -1.659820
v 0.485103 -2.688076 -1.660446
v 0.736589 1.037851 0.432383
v 0.780267 0.258311 0.114521
v 0.651165 -0.161441 -0.077213
v 0.639416 -0.485541 -0.435544
v 0.634140 -0.853964 -0.768548
v 0.633284 -1.245602 -1.039026
v 0.656350 -1.771649 -1.316537
v 0.693884 -2.253675 -1.515980
v -0.739872 1.037661 0.432827
v -0.793136 0.262046 0.118713
v -0.781262 -0.105919 -0.026416
v -0.621492 -0.481615 -0.431949
v -0.605132 -0.853964 -0.768545
v -0.604716 -1.245602 -1.039023
v -0.628603 -1.771649 -1.315910
v -0.597802 -2.253675 -1.507165
v -0.004102 -2.493129 -0.978046
v -0.004066 0.240976 2.380258
v -0.004078 2.681627 -0.523501
v -0.004108 -2.888527 -2.322179
v -0.004100 1.709903 -0.473512
v -0.004099 0.591660 -0.391753
v -0.004100 0.104263 -0.515881
v -0.004101 -0.409612 -0.793103
v -0.004103 -0.882773 -1.136155
v -0.004104 -1.272795 -1.518331
v -0.004106 -1.798080 -1.884641
v -0.004107 -2.262638 -2.095337
v -0.004101 -2.256036 -0.749670
v -0.004100 -1.878685 -0.591111
v -0.004099 -1.361926 -0.339497
v -0.004098 -0.870779 -0.070595
v -0.004097 -0.505887 0.218037
v -0.004096 -0.226580 0.467677
v -0.004095 -0.014022 0.678046
v -0.004090 0.183151 1.723567
v -0.004105 -2.833492 -1.685050
v -0.003295 1.780503 0.434583
v -0.456727 -2.360076 -1.015817
v 0.208792 -2.490642 -1.045517
v 0.424490 0.490535 1.888885
v -0.117459 0.294163 2.291667
v -0.464663 1.018140 1.336152
v 0.515624 2.122742 0.044172
v -0.167039 2.586552 -0.402057
v -0.373170 2.032863 -0.234126
v 0.253849 -2.561890 -2.149336
v -0.135242 -2.865478 -2.280244
v -0.372351 -2.769825 -1.961376
v 0.449781 -2.583361 -1.375100
v -0.432339 0.490535 1.888802
v -0.679313 0.487724 1.067359
v -0.606294 0.086064 0.452351
v -0.519975 -0.297465 0.184198
v -0.513680 -0.621850 -0.095709
v -0.513681 -1.047864 -0.376636
v -0.514620 -1.556446 -0.639372
v -0.514201 -2.018580 -0.831865
v 0.452403 -2.360076 -1.016153
v 0.510878 -2.018580 -0.832202
v 0.508654 -1.556446 -0.639374
v 0.507952 -1.047864 -0.376639
v 0.507953 -0.621850 -0.095712
v 0.508312 -0.299568 0.182272
v 0.593398 0.083961 0.450424
v 0.671298 0.487732 1.067330
v -0.258183 -2.561890 -2.149001
v -0.246036 -2.025566 -1.958249
v -0.217756 -1.531579 -1.675949
v -0.223635 -1.074174 -1.301911
v -0.281076 -0.659973 -0.904725
v -0.347951 -0.154287 -0.475832
v -0.364982 0.394966 -0.211040
v -0.398299 1.120579 -0.190148
v 0.365303 2.032862 -0.234043
v 0.390274 1.120587 -0.190175
v 0.352080 0.392863 -0.212966
v 0.336281 -0.156390 -0.477758
v 0.275342 -0.659973 -0.904727
v 0.217898 -1.074174 -1.301912
v 0.211781 -1.531579 -1.675951
v 0.242704 -2.025566 -1.958583
v 0.592001 1.314596 0.084775
v 0.579627 0.471899 -0.038471
v 0.515747 -0.020739 -0.181482
v 0.489097 -0.458583 -0.577007
v 0.445593 -0.869612 -0.954974
v 0.427892 -1.256719 -1.279952
v 0.449966 -1.782665 -1.599706
v 0.489830 -2.258122 -1.803593
v -0.722161 0.823161 0.995789
v -0.769150 0.286991 0.379020
v -0.685729 -0.128904 0.147787
v -0.591188 -0.462870 -0.188747
v -0.585067 -0.829086 -0.500026
v -0.585934 -1.267130 -0.766018
v -0.598933 -1.789272 -1.027393
v -0.576837 -2.230773 -1.192580
v -0.218971 1.662437 -0.368006
v -0.179510 0.647565 -0.297207
v -0.184244 0.120097 -0.409651
v -0.161994 -0.416299 -0.753724
v -0.118676 -0.883278 -1.133081
v -0.100347 -1.272732 -1.517400
v -0.110127 -1.798015 -1.883520
v -0.129372 -2.261258 -2.091112
v -0.267360 -2.233770 -0.804569
v -0.271001 -1.849136 -0.655701
v -0.270937 -1.331952 -0.404908
v -0.270936 -0.841042 -0.136028
v -0.270935 -0.476142 0.152680
v -0.276690 -0.187773 0.406806
v -0.356472 0.143669 0.667313
v -0.341598 0.373065 1.664459
v -0.514237 2.122742 0.042921
v 0.466060 1.018140 1.337403
v -0.454109 -2.583361 -1.374764
v 0.368019 -2.769825 -1.961712
v 0.714640 0.823176 0.995819
v 0.756595 0.284904 0.377043
v 0.608197 -0.160451 0.118924
v 0.598044 -0.464973 -0.190674
v 0.597860 -0.829086 -0.500029
v 0.598490 -1.267130 -0.766021
v 0.610847 -1.789272 -1.027729
v 0.627827 -2.230774 -1.197589
v -0.599530 1.314580 0.084744
v -0.592185 0.473986 -0.036495
v -0.593281 0.010808 -0.152619
v -0.482244 -0.456480 -0.575081
v -0.432804 -0.869612 -0.954971
v -0.415341 -1.256719 -1.279950
v -0.438057 -1.782665 -1.599370
v -0.438846 -2.258123 -1.798584
v -0.616540 -2.015110 -1.414996
v -0.617553 -1.505784 -1.179446
v -0.603998 -1.045150 -0.905202
v -0.608157 -0.667693 -0.604970
v -0.701310 -0.292570 -0.223005
v -0.796154 0.066038 0.048350
v -0.744865 0.637308 0.282592
v -0.732251 1.402129 0.448193
v 0.681613 -2.015110 -1.420005
v 0.643214 -1.505784 -1.179471
v 0.632989 -1.045150 -0.905205
v 0.636770 -0.667833 -0.605101
v 0.641146 -0.324117 -0.251868
v 0.717641 0.034499 0.019462
v 0.761710 0.638340 0.278791
v 0.733805 1.402137 0.449416
v 0.605171 -2.479947 -1.593050
v -0.555119 -2.479947 -1.588041
v -0.256697 -2.777234 -1.677315
v -0.364915 1.772222 0.438625
v -0.216996 -2.490642 -1.045516
v 0.109614 0.294163 2.291751
v 0.159171 2.586552 -0.401973
v 0.127027 -2.865478 -2.280245
v 0.210773 1.662436 -0.368007
v 0.171312 0.647565 -0.297208
v 0.175731 0.119956 -0.409780
v 0.153874 -0.416299 -0.753725
v 0.110553 -0.883278 -1.133082
v 0.092221 -1.272732 -1.517401
v 0.101983 -1.798015 -1.883520
v 0.121417 -2.261258 -2.091135
v 0.259417 -2.233770 -0.804593
v 0.262867 -1.849136 -0.655702
v 0.262821 -1.331952 -0.404909
v 0.262822 -0.841042 -0.136030
v 0.262823 -0.476142 0.152679
v 0.268184 -0.187913 0.406676
v 0.348283 0.143669 0.667312
v 0.333417 0.373065 1.664458
v 0.248746 -2.777234 -1.677338
v 0.366319 1.772222 0.439869
v -0.003768 0.980831 1.456672
v -0.004106 -2.890067 -2.032326
v -0.004093 0.090814 1.182140
v -0.004095 -0.118339 0.548961
v -0.004096 -0.361539 0.347076
v -0.004097 -0.682387 0.074100
v -0.004099 -1.111825 -0.206006
v -0.004100 -1.623585 -0.468496
v -0.004101 -2.075905 -0.672080
v -0.004101 -2.374641 -0.847400
v -0.004106 -2.026345 -1.992170
v -0.004105 -1.533510 -1.706720
v -0.004103 -1.076068 -1.326246
v -0.004102 -0.650141 -0.961540
v -0.004100 -0.151423 -0.648791
v -0.004100 0.329959 -0.443805
v -0.004099 1.130998 -0.425351
v -0.004100 2.273450 -0.532443
v -0.004103 -2.667068 -1.317851
v -0.004107 -2.589859 -2.233101
v -0.003775 2.325308 -0.113039
v -0.004089 0.171757 2.143101
v -0.220710 0.296737 2.063463
v -0.276662 2.255387 -0.042493
v -0.129273 -2.578974 -2.208538
v -0.239245 -2.637028 -1.349256
v -0.187592 2.180540 -0.410139
v -0.201136 1.139867 -0.327183
v -0.181090 0.370045 -0.341416
v -0.174680 -0.148751 -0.574271
v -0.140226 -0.654437 -0.942622
v -0.107935 -1.076026 -1.325349
v -0.104140 -1.533445 -1.705694
v -0.120142 -2.026269 -1.990928
v -0.240753 -2.364702 -0.911283
v -0.270845 -2.049159 -0.731113
v -0.270969 -1.593639 -0.533896
v -0.270937 -1.081970 -0.271428
v -0.270936 -0.652646 0.008705
v -0.271311 -0.331361 0.282060
v -0.316701 -0.021238 0.514868
v -0.359120 0.273514 1.150276
v -0.197463 -2.847376 -2.003502
v -0.244842 1.002738 1.409000
v 0.239801 1.002738 1.409702
v 0.189380 -2.847376 -2.003515
v -0.527510 -2.417044 -1.289983
v 0.440696 -2.524068 -1.886373
v 0.570792 1.737779 0.072859
v 0.588965 0.882934 0.027798
v 0.547963 0.213824 -0.102255
v 0.501788 -0.241296 -0.372290
v 0.467236 -0.665806 -0.768563
v 0.434838 -1.059658 -1.118879
v 0.437011 -1.517180 -1.443177
v 0.473709 -2.020327 -1.706203
v -0.608979 0.937043 1.181775
v -0.751187 0.561131 0.684114
v -0.731564 0.072448 0.254725
v -0.635957 -0.297200 -0.017288
v -0.585356 -0.642962 -0.346711
v -0.585063 -1.043481 -0.634220
v -0.592957 -1.528092 -0.899621
v -0.591267 -2.014627 -1.111818
v 0.350934 0.273514 1.150274
v 0.308353 -0.021308 0.514802
v 0.263002 -0.331431 0.281995
v 0.262823 -0.652645 0.008703
v 0.262821 -1.081970 -0.271430
v 0.262844 -1.593639 -0.533897
v 0.262806 -2.049159 -0.731126
v 0.232680 -2.364702 -0.911295
v 0.112092 -2.026269 -1.990939
v 0.096004 -1.533445 -1.705695
v 0.099810 -1.076026 -1.325350
v 0.132105 -0.654437 -0.942623
v 0.166364 -0.148822 -0.574336
v 0.172735 0.369975 -0.341481
v 0.192938 1.139867 -0.327184
v 0.179415 2.180540 -0.410135
v -0.440561 -2.020327 -1.703375
v -0.426125 -1.517180 -1.443164
v -0.422058 -1.059658 -1.118877
v -0.454643 -0.665735 -0.768496
v -0.539324 -0.223490 -0.355998
v -0.595952 0.231630 -0.085963
v -0.593199 0.882814 0.028458
v -0.575855 1.737780 0.072156
v 0.624420 -2.014627 -1.114647
v 0.603848 -1.528092 -0.899635
v 0.597846 -1.043481 -0.634223
v 0.597952 -0.643032 -0.346778
v 0.598424 -0.315006 -0.033580
v 0.683578 0.054641 0.238432
v 0.746959 0.561251 0.683453
v 0.603925 0.937042 1.182478
v 0.552185 -2.417044 -1.292811
v -0.416027 -2.524068 -1.883546
v 0.231167 -2.637028 -1.349269
v 0.121188 -2.578974 -2.208550
v 0.271609 2.255387 -0.041791
v 0.212554 0.296737 2.063468
vt 0.938249 0.335085
vt 0.929342 0.337107
vt 0.940857 0.329477
vt 0.944081 0.326861
vt 0.763104 0.579927
vt 0.773545 0.583294
vt 0.758035 0.583366
vt 0.749343 0.583672
vt 0.721718 0.429985
vt 0.716482 0.429877
vt 0.717510 0.427778
vt 0.722946 0.427235
vt 0.936185 0.409021
vt 0.926482 0.409833
vt 0.928977 0.403975
vt 0.937503 0.401960
vt 0.990378 0.115865
vt 0.999981 0.118778
vt 0.999961 0.125821
vt 0.990531 0.121942
vt 0.971294 0.141769
vt 0.961602 0.144747
vt 0.964469 0.141014
vt 0.972772 0.137301
vt 0.802232 0.567550
vt 0.816074 0.552688
vt 0.815392 0.562914
vt 0.801559 0.572258
vt 0.933461 0.214678
vt 0.918347 0.216123
vt 0.933799 0.210132
vt 0.941987 0.206953
vt 0.943611 0.201542
vt 0.936124 0.203847
vt 0.938449 0.197563
vt 0.945235 0.196132
vt 0.949164 0.192234
vt 0.941401 0.193952
vt 0.944353 0.190341
vt 0.953094 0.188335
vt 0.956612 0.183695
vt 0.947548 0.185782
vt 0.950743 0.181223
vt 0.960131 0.179055
vt 0.962448 0.173819
vt 0.952856 0.175352
vt 0.954970 0.169481
vt 0.964766 0.168584
vt 0.966705 0.162359
vt 0.956748 0.163336
vt 0.958527 0.157192
vt 0.968644 0.156133
vt 0.969230 0.151185
vt 0.958631 0.152836
vt 0.958735 0.148480
vt 0.969816 0.146238
vt 0.965939 0.016896
vt 0.980009 0.012743
vt 0.974975 0.021780
vt 0.960974 0.025371
vt 0.958950 0.034630
vt 0.969329 0.030838
vt 0.963684 0.039896
vt 0.956927 0.043889
vt 0.956353 0.048598
vt 0.962331 0.045858
vt 0.960979 0.051820
vt 0.955779 0.053308
vt 0.961048 0.059585
vt 0.965895 0.059072
vt 0.970811 0.066323
vt 0.966316 0.065863
vt 0.731590 0.464593
vt 0.725751 0.460422
vt 0.725808 0.455562
vt 0.732364 0.460385
vt 0.733440 0.456878
vt 0.726793 0.451336
vt 0.727778 0.447110
vt 0.734517 0.453371
vt 0.985330 0.092659
vt 0.994006 0.094974
vt 0.997759 0.101588
vt 0.988257 0.099116
vt 0.989241 0.104452
vt 0.998879 0.106662
vt 1.000000 0.111735
vt 0.990225 0.109788
vt 0.986629 0.240237
vt 0.979988 0.238897
vt 0.974958 0.229863
vt 0.979967 0.229908
vt 0.973365 0.219407
vt 0.969308 0.220805
vt 0.963658 0.211748
vt 0.966764 0.208906
vt 0.966198 0.203571
vt 0.962306 0.205787
vt 0.960954 0.199826
vt 0.965632 0.198235
vt 0.704992 0.465260
vt 0.697366 0.466230
vt 0.700320 0.461457
vt 0.707067 0.461447
vt 0.709715 0.457491
vt 0.704100 0.457158
vt 0.707880 0.452858
vt 0.712362 0.453534
vt 0.714455 0.449475
vt 0.710342 0.448855
vt 0.712804 0.444852
vt 0.716547 0.445416
vt 0.718041 0.441302
vt 0.714081 0.440705
vt 0.715358 0.436558
vt 0.719535 0.437188
vt 0.720013 0.434961
vt 0.715406 0.434267
vt 0.715454 0.431976
vt 0.720490 0.432735
vt 0.936294 0.399551
vt 0.926525 0.401229
vt 0.924072 0.398483
vt 0.935085 0.397142
vt 0.935111 0.395618
vt 0.924095 0.397139
vt 0.924118 0.395796
vt 0.935136 0.394094
vt 0.935184 0.391263
vt 0.924165 0.392964
vt 0.924213 0.390133
vt 0.935232 0.388431
vt 0.935281 0.385488
vt 0.924263 0.387190
vt 0.924312 0.384247
vt 0.935331 0.382545
vt 0.935384 0.379368
vt 0.924366 0.381070
vt 0.924419 0.377892
vt 0.935438 0.376191
vt 0.935484 0.373433
vt 0.924466 0.375134
vt 0.924512 0.372376
vt 0.935531 0.370675
vt 0.933692 0.368393
vt 0.920811 0.369189
vt 0.917109 0.366001
vt 0.931853 0.366112
vt 0.932135 0.354710
vt 0.917468 0.355368
vt 0.917827 0.344736
vt 0.932417 0.343309
vt 0.969128 0.100529
vt 0.979602 0.102242
vt 0.980450 0.107841
vt 0.969604 0.105507
vt 0.966711 0.089329
vt 0.976654 0.090344
vt 0.978755 0.096644
vt 0.968651 0.095552
vt 0.962452 0.077872
vt 0.972030 0.079444
vt 0.974552 0.084044
vt 0.964771 0.083107
vt 0.956614 0.067997
vt 0.965664 0.070124
vt 0.969507 0.074845
vt 0.960134 0.072637
vt 0.948809 0.058899
vt 0.956200 0.060099
vt 0.961821 0.065402
vt 0.953095 0.063356
vt 0.943254 0.049573
vt 0.950375 0.051339
vt 0.950580 0.054796
vt 0.944522 0.054442
vt 0.933460 0.036978
vt 0.948312 0.038508
vt 0.950170 0.047882
vt 0.941986 0.044703
vt 0.920061 0.026611
vt 0.951869 0.021048
vt 0.946972 0.028962
vt 0.924934 0.029253
vt 0.989333 0.147257
vt 0.979828 0.149535
vt 0.980896 0.143995
vt 0.990427 0.141951
vt 0.985312 0.159024
vt 0.976662 0.161381
vt 0.978761 0.155074
vt 0.988238 0.152563
vt 0.699284 0.451727
vt 0.688226 0.454600
vt 0.689394 0.451812
vt 0.701099 0.448332
vt 0.694834 0.459050
vt 0.685568 0.460943
vt 0.687057 0.457387
vt 0.697469 0.455123
vt 0.689888 0.467355
vt 0.682411 0.468480
vt 0.684078 0.464498
vt 0.692199 0.462977
vt 0.956702 0.202512
vt 0.951097 0.199238
vt 0.952020 0.194701
vt 0.956487 0.197263
vt 0.958941 0.217019
vt 0.948574 0.213233
vt 0.950174 0.203774
vt 0.956916 0.207761
vt 0.965908 0.234761
vt 0.951828 0.230624
vt 0.946974 0.222692
vt 0.960966 0.226277
vt 0.990462 0.135828
vt 0.980986 0.138791
vt 0.981076 0.133587
vt 0.990497 0.129704
vt 0.971202 0.109928
vt 0.980776 0.112952
vt 0.981101 0.118063
vt 0.972800 0.114350
vt 0.937667 0.423110
vt 0.929712 0.422244
vt 0.923988 0.415692
vt 0.934868 0.416081
vt 0.797188 0.557720
vt 0.802906 0.562841
vt 0.787645 0.582397
vt 0.776864 0.576182
vt 0.782852 0.549363
vt 0.791470 0.552598
vt 0.764674 0.569142
vt 0.752751 0.562132
vt 0.953604 0.423207
vt 0.945622 0.423976
vt 0.945749 0.416471
vt 0.956640 0.416214
vt 0.961443 0.354889
vt 0.946802 0.354052
vt 0.947007 0.341882
vt 0.961546 0.343486
vt 0.959424 0.368550
vt 0.946573 0.367598
vt 0.946596 0.366223
vt 0.961340 0.366292
vt 0.957462 0.373567
vt 0.946503 0.371732
vt 0.946550 0.368974
vt 0.957509 0.370809
vt 0.957362 0.379502
vt 0.946403 0.377667
vt 0.946457 0.374490
vt 0.957416 0.376325
vt 0.957259 0.385622
vt 0.946300 0.383787
vt 0.946350 0.380844
vt 0.957308 0.382679
vt 0.957161 0.391397
vt 0.946203 0.389561
vt 0.946250 0.386730
vt 0.957209 0.388565
vt 0.957088 0.395752
vt 0.946126 0.394096
vt 0.946155 0.392393
vt 0.957114 0.394228
vt 0.955773 0.399670
vt 0.946063 0.397873
vt 0.946098 0.395800
vt 0.957062 0.397276
vt 0.729227 0.436351
vt 0.724620 0.435656
vt 0.725527 0.433494
vt 0.730564 0.434254
vt 0.725962 0.442496
vt 0.722002 0.441899
vt 0.723713 0.437818
vt 0.727890 0.438448
vt 0.722680 0.450716
vt 0.718568 0.450095
vt 0.720291 0.445981
vt 0.724034 0.446545
vt 0.720540 0.459123
vt 0.715330 0.457824
vt 0.716844 0.454210
vt 0.721326 0.454886
vt 0.718577 0.467308
vt 0.712619 0.464289
vt 0.713815 0.461438
vt 0.719754 0.463360
vt 0.966235 0.048070
vt 0.970139 0.050282
vt 0.970360 0.054991
vt 0.965669 0.053406
vt 0.973399 0.032232
vt 0.977469 0.033625
vt 0.969918 0.045572
vt 0.966801 0.042734
vt 0.986661 0.011399
vt 0.993313 0.010055
vt 0.985019 0.021679
vt 0.979997 0.021730
vt 0.955561 0.409139
vt 0.945888 0.408208
vt 0.946028 0.399945
vt 0.954483 0.402064
vt 0.731654 0.431483
vt 0.726954 0.430093
vt 0.728382 0.426692
vt 0.732745 0.428712
vt 0.746836 0.570441
vt 0.752663 0.576560
vt 0.741146 0.583672
vt 0.740921 0.578750
vt 0.955993 0.335193
vt 0.947156 0.333063
vt 0.947305 0.324244
vt 0.950440 0.326899
vt 0.964830 0.337323
vt 0.953575 0.329555
vt 0.976084 0.345091
vt 0.741009 0.564322
vt 0.741190 0.573522
vt 0.743721 0.556813
vt 0.736354 0.432873
vt 0.737108 0.430733
vt 0.735600 0.435013
vt 0.965235 0.410070
vt 0.962938 0.404182
vt 0.967531 0.415957
vt 0.985043 0.003706
vt 0.993324 0.001068
vt 1.000000 0.000000
vt 0.724535 0.470327
vt 0.725694 0.465283
vt 0.723375 0.475371
vt 0.717399 0.471256
vt 0.711422 0.467141
vt 0.729923 0.443094
vt 0.732068 0.439077
vt 0.733834 0.437045
vt 0.965483 0.401467
vt 0.968027 0.398751
vt 0.968050 0.397407
vt 0.968073 0.396063
vt 0.968120 0.393232
vt 0.968168 0.390401
vt 0.968218 0.387458
vt 0.968267 0.384514
vt 0.968321 0.381337
vt 0.968374 0.378160
vt 0.968421 0.375402
vt 0.968467 0.372644
vt 0.972276 0.369502
vt 0.976084 0.366360
vt 0.976084 0.355726
vt 0.961587 0.422438
vt 0.955642 0.428920
vt 0.950568 0.430200
vt 0.945495 0.431481
vt 0.774235 0.546129
vt 0.807641 0.537135
vt 0.812954 0.536594
vt 0.818266 0.536053
vt 0.817511 0.539257
vt 0.816756 0.542462
vt 0.940466 0.430139
vt 0.935437 0.428797
vt 0.961629 0.106904
vt 0.964500 0.110636
vt 0.958758 0.103173
vt 0.999938 0.132864
vt 0.999917 0.125821
vt 0.999958 0.139907
vt 0.985018 0.247932
vt 0.970850 0.243244
vt 0.956655 0.238465
vt 0.961397 0.191544
vt 0.965867 0.192573
vt 0.956927 0.190515
vt 0.993963 0.156667
vt 0.997716 0.150052
vt 0.990210 0.163281
vt 0.982386 0.165484
vt 0.974562 0.167688
vt 0.998837 0.144980
vt 0.790641 0.537825
vt 0.766350 0.546601
vt 0.758465 0.547074
vt 0.773640 0.538515
vt 0.915189 0.023970
vt 0.956715 0.013319
vt 0.918348 0.035534
vt 0.933801 0.041524
vt 0.902895 0.029544
vt 0.936133 0.047806
vt 0.938464 0.054089
vt 0.941417 0.057699
vt 0.944369 0.061310
vt 0.730199 0.326466
vt 0.738407 0.327966
vt 0.738407 0.333344
vt 0.731266 0.330376
vt 0.947565 0.065869
vt 0.950761 0.070428
vt 0.952875 0.076300
vt 0.954989 0.082171
vt 0.956769 0.088315
vt 0.958548 0.094460
vt 0.958653 0.098816
vt 0.702917 0.469072
vt 0.694411 0.471003
vt 0.970091 0.201355
vt 0.970311 0.196645
vt 0.969871 0.206064
vt 0.977423 0.218009
vt 0.984975 0.229954
vt 0.993270 0.241576
vt 0.999958 0.251629
vt 0.993291 0.250565
vt 0.982402 0.086201
vt 0.990252 0.088359
vt 0.978785 0.081403
vt 0.738919 0.465207
vt 0.740088 0.462420
vt 0.737430 0.468763
vt 0.735940 0.472318
vt 0.730817 0.468801
vt 0.740088 0.482908
vt 0.731732 0.479139
vt 0.731274 0.473970
vt 0.738014 0.477613
vt 0.970904 0.008420
vt 0.972040 0.172287
vt 0.969518 0.176886
vt 0.965676 0.181608
vt 0.961834 0.186329
vt 0.924935 0.222403
vt 0.902895 0.222115
vt 0.920033 0.225052
vt 0.915130 0.227701
vn 0.7839 -0.4991 0.3694
vn 0.1732 0.7445 0.6448
vn 0.1360 0.7262 0.6739
vn 0.1917 0.7529 0.6296
vn 0.3419 0.2625 -0.9023
vn 0.3295 0.2740 -0.9035
vn 0.3761 0.2299 -0.8976
vn 0.2149 -0.8864 0.4100
vn 0.2621 -0.8804 0.3952
vn 0.2341 -0.8777 0.4181
vn 0.1893 -0.8805 0.4347
vn -0.8480 0.1055 -0.5194
vn -0.8611 0.0847 -0.5013
vn -0.8787 0.0544 -0.4743
vn 0.6839 -0.6217 0.3818
vn 0.7189 0.5419 0.4354
vn 0.9137 -0.3453 0.2144
vn 0.7791 -0.4935 0.3865
vn 0.7808 -0.4969 0.3787
vn 0.7922 -0.4660 0.3942
vn 0.8078 -0.4400 0.3922
vn 0.8486 -0.3752 0.3728
vn 0.8326 -0.3995 0.3837
vn 0.8660 -0.3446 0.3624
vn 0.8808 -0.3137 0.3545
vn 0.8974 -0.2783 0.3423
vn 0.8916 -0.2905 0.3473
vn 0.9087 -0.2478 0.3359
vn 0.9183 -0.2170 0.3311
vn 0.9295 -0.1831 0.3201
vn 0.9272 -0.1887 0.3236
vn 0.9334 -0.1665 0.3178
vn 0.9342 -0.1604 0.3187
vn 0.9330 -0.1481 0.3280
vn 0.9338 -0.1489 0.3252
vn 0.9305 -0.1271 0.3436
vn 0.9299 -0.1180 0.3485
vn 0.9202 -0.1276 0.3701
vn 0.9230 -0.1180 0.3662
vn 0.9145 -0.1458 0.3774
vn -0.8718 0.0702 -0.4848
vn -0.8719 0.0940 -0.4805
vn -0.8715 0.0585 -0.4868
vn -0.6528 0.0158 -0.7573
vn -0.6255 0.1999 -0.7541
vn -0.5624 0.1628 -0.8107
vn -0.5617 0.2133 -0.7994
vn -0.6170 0.2243 -0.7543
vn -0.6344 0.4257 -0.6452
vn -0.5847 0.4612 -0.6674
vn -0.5641 0.4992 -0.6577
vn -0.5707 0.4898 -0.6591
vn -0.5427 0.5222 -0.6579
vn -0.5328 0.5293 -0.6602
vn -0.5230 0.5512 -0.6501
vn -0.5226 0.5439 -0.6566
vn -0.5404 0.5478 -0.6387
vn -0.5583 0.5370 -0.6324
vn -0.6205 0.4702 -0.6276
vn -0.5988 0.4975 -0.6276
vn -0.6558 0.4304 -0.6203
vn -0.6662 0.4217 -0.6152
vn -0.6792 0.4104 -0.6084
vn -0.7566 0.2834 -0.5893
vn -0.7646 0.2739 -0.5835
vn -0.7802 0.2546 -0.5713
vn 0.6457 0.0068 -0.7636
vn 0.5106 -0.0752 -0.8565
vn 0.5668 -0.0778 -0.8202
vn 0.5648 -0.0755 -0.8218
vn 0.5101 -0.0691 -0.8573
vn 0.5613 0.1700 -0.8100
vn 0.5747 0.1470 -0.8050
vn 0.5907 0.1943 -0.7831
vn 0.5669 0.2084 -0.7970
vn 0.3629 0.4930 -0.7907
vn 0.3850 0.5312 -0.7547
vn 0.3332 0.5132 -0.7910
vn 0.1769 0.6112 -0.7715
vn 0.2333 0.6165 -0.7520
vn 0.1549 0.6624 -0.7329
vn 0.0983 0.6655 -0.7399
vn 0.0730 0.6965 -0.7138
vn 0.1333 0.6906 -0.7109
vn 0.1453 0.6839 -0.7149
vn 0.1969 0.5603 -0.8046
vn 0.1956 0.5626 -0.8033
vn 0.2039 0.5480 -0.8113
vn 0.2215 0.4067 -0.8863
vn 0.2215 0.4078 -0.8858
vn 0.2572 0.3494 -0.9010
vn 0.2607 0.3453 -0.9016
vn 0.2850 -0.6925 0.6628
vn 0.3218 -0.6749 0.6640
vn 0.3383 -0.6395 0.6904
vn 0.3924 -0.3234 0.8611
vn 0.3922 -0.3237 0.8610
vn 0.4065 -0.3502 0.8439
vn 0.4067 -0.3516 0.8432
vn 0.4112 -0.3973 0.8204
vn 0.4112 -0.3969 0.8206
vn 0.4097 -0.4170 0.8113
vn 0.4096 -0.4181 0.8108
vn 0.4048 -0.4417 0.8006
vn 0.4051 -0.4408 0.8010
vn 0.4022 -0.4505 0.7970
vn 0.3803 -0.5765 0.7232
vn 0.3810 -0.5743 0.7246
vn 0.3721 -0.6036 0.7051
vn 0.3709 -0.6075 0.7024
vn 0.3067 -0.6343 0.7096
vn 0.3638 -0.6224 0.6930
vn 0.3667 -0.5906 0.7188
vn 0.3080 -0.6010 0.7375
vn 0.3538 -0.6845 0.6374
vn 0.4102 -0.6479 0.6419
vn 0.3762 -0.6704 0.6395
vn 0.5817 -0.7799 0.2310
vn 0.5776 -0.7822 0.2335
vn 0.6363 -0.7502 0.1799
vn 0.6564 -0.7405 0.1443
vn -0.9926 -0.0867 0.0854
vn -0.9923 -0.0925 0.0826
vn -0.9917 -0.1020 0.0781
vn -0.9964 -0.0075 0.0840
vn -0.9961 -0.0105 0.0881
vn -0.9944 -0.0535 0.0915
vn -0.9949 -0.0394 0.0925
vn -0.9962 -0.0481 0.0723
vn -0.9966 -0.0429 0.0698
vn -0.9971 -0.0154 0.0744
vn -0.9971 -0.0256 0.0715
vn -0.9841 -0.1394 0.1104
vn -0.9902 -0.1017 0.0956
vn -0.9951 -0.0605 0.0781
vn -0.9935 -0.0754 0.0847
vn -0.8410 -0.5046 0.1951
vn -0.8792 -0.3164 0.3561
vn -0.9985 0.0479 0.0255
vn -0.9978 0.0595 0.0282
vn -0.9964 0.0781 0.0326
vn -0.9678 0.1639 0.1912
vn 0.7327 0.3170 -0.6023
vn 0.7684 0.3036 -0.5634
vn 0.7788 0.2752 -0.5637
vn 0.7332 0.2988 -0.6109
vn 0.7295 0.3605 -0.5814
vn 0.7218 0.3659 -0.5874
vn 0.7483 0.3411 -0.5689
vn 0.7085 0.3677 -0.6024
vn 0.6446 0.4528 -0.6161
vn 0.6297 0.4646 -0.6226
vn 0.6784 0.4167 -0.6051
vn 0.6936 0.3968 -0.6012
vn 0.5513 0.5320 -0.6427
vn 0.6057 0.5167 -0.6052
vn 0.5961 0.5056 -0.6237
vn 0.5460 0.5279 -0.6505
vn 0.6736 0.5165 -0.5286
vn 0.6528 0.5163 -0.5544
vn 0.6374 0.5158 -0.5724
vn 0.6365 0.1398 -0.7585
vn 0.6739 0.1276 -0.7278
vn 0.6793 0.1387 -0.7206
vn 0.6532 0.1558 -0.7410
vn 0.8129 0.1717 -0.5566
vn 0.9291 0.0307 -0.3687
vn 0.9218 0.0901 -0.3770
vn 0.9260 0.0596 -0.3729
vn 0.8922 -0.2636 -0.3667
vn -0.8808 -0.4236 0.2117
vn 0.3546 -0.9267 0.1246
vn 0.0981 0.7714 0.6288
vn 0.1399 0.7626 0.6315
vn 0.1252 0.7463 0.6537
vn 0.0737 0.7458 0.6621
vn -0.1025 0.7713 0.6282
vn -0.0011 0.7807 0.6250
vn -0.0012 0.7469 0.6650
vn -0.0798 0.7450 0.6623
vn -0.2008 -0.9658 0.1641
vn -0.4596 -0.8685 0.1857
vn -0.4593 -0.8686 0.1860
vn -0.4840 -0.8595 0.1643
vn -0.3523 -0.6838 0.6390
vn -0.3139 -0.7080 0.6327
vn -0.3741 -0.6691 0.6421
vn -0.3041 -0.6367 0.7086
vn -0.2499 -0.6440 0.7230
vn -0.2554 -0.6078 0.7518
vn -0.3039 -0.6017 0.7386
vn -0.2529 -0.6001 0.7589
vn -0.2528 -0.6010 0.7583
vn -0.2503 -0.6296 0.7355
vn -0.3117 -0.6201 0.7199
vn -0.2596 -0.4638 0.8470
vn -0.2596 -0.4641 0.8469
vn -0.2593 -0.4731 0.8420
vn -0.2594 -0.4220 0.8687
vn -0.2600 -0.4410 0.8590
vn -0.2600 -0.4408 0.8591
vn -0.2373 -0.3646 0.9004
vn -0.2371 -0.3648 0.9004
vn -0.2527 -0.3863 0.8871
vn -0.2527 -0.3865 0.8870
vn -0.2174 -0.6324 0.7435
vn -0.0140 0.4110 -0.9115
vn -0.0001 0.4113 -0.9115
vn -0.0001 0.3821 -0.9241
vn -0.0534 0.3818 -0.9227
vn -0.0080 0.5718 -0.8204
vn -0.0000 0.5718 -0.8204
vn -0.0000 0.5580 -0.8298
vn -0.0083 0.5580 -0.8298
vn -0.0744 0.6964 -0.7138
vn -0.0000 0.7010 -0.7131
vn -0.0000 0.6985 -0.7156
vn -0.0062 0.6985 -0.7156
vn -0.1787 0.6108 -0.7714
vn -0.1281 0.6011 -0.7888
vn -0.0805 0.6161 -0.7835
vn -0.0996 0.6653 -0.7399
vn -0.3886 0.4876 -0.7818
vn -0.3341 0.4766 -0.8131
vn -0.2897 0.4968 -0.8181
vn -0.3332 0.5121 -0.7917
vn -0.5057 0.1856 -0.8425
vn -0.4546 0.2160 -0.8641
vn -0.4578 0.2543 -0.8519
vn -0.5034 0.2360 -0.8312
vn -0.5107 -0.0752 -0.8565
vn -0.4518 -0.0718 -0.8892
vn -0.4674 -0.0641 -0.8817
vn -0.5102 -0.0690 -0.8573
vn -0.4771 -0.0680 -0.8762
vn -0.4597 -0.0729 -0.8851
vn -0.4533 -0.0747 -0.8882
vn -0.2168 -0.8862 0.4094
vn -0.1699 -0.8898 0.4235
vn -0.1620 -0.8812 0.4442
vn -0.1900 -0.8805 0.4343
vn -0.2099 0.2610 -0.9422
vn 0.0011 0.7201 0.6938
vn -0.0007 0.7308 0.6826
vn -0.0005 0.7452 0.6668
vn 0.0117 0.7451 0.6669
vn -0.5523 -0.7992 0.2370
vn -0.7856 -0.4932 0.3736
vn -0.6365 -0.7500 0.1800
vn -0.6567 -0.7401 0.1447
vn -0.6764 -0.7285 0.1079
vn -0.4900 -0.8715 -0.0210
vn -0.1439 0.7237 0.6749
vn -0.1769 0.7421 0.6465
vn -0.1933 0.7507 0.6317
vn -0.1350 0.7448 0.6535
vn -0.3398 0.2750 -0.8994
vn -0.3510 0.2638 -0.8984
vn -0.3817 0.2322 -0.8947
vn -0.2702 0.3486 -0.8975
vn -0.2741 0.3444 -0.8979
vn -0.0885 0.3665 -0.9262
vn -0.2659 -0.8798 0.3941
vn -0.2358 -0.8778 0.4170
vn -0.2899 -0.8805 0.3751
vn -0.2304 -0.8917 0.3896
vn -0.1785 -0.8986 0.4008
vn -0.6460 0.0070 -0.7633
vn -0.7308 0.0660 -0.6794
vn -0.5866 0.0317 -0.8093
vn -0.5669 -0.0777 -0.8201
vn -0.5649 -0.0753 -0.8217
vn -0.5691 -0.0803 -0.8183
vn -0.5594 0.1281 -0.8189
vn -0.5096 0.1366 -0.8495
vn -0.4485 0.1584 -0.8797
vn -0.4458 0.4918 -0.7479
vn -0.3851 0.5288 -0.7563
vn -0.4832 0.4669 -0.7406
vn -0.4481 0.4606 -0.7662
vn -0.3906 0.4488 -0.8038
vn -0.2370 0.6156 -0.7516
vn -0.1578 0.6619 -0.7328
vn -0.2759 0.6001 -0.7508
vn -0.2341 0.5937 -0.7699
vn -0.1789 0.5833 -0.7923
vn -0.1359 0.6902 -0.7107
vn -0.1483 0.6835 -0.7147
vn -0.0000 0.7035 -0.7107
vn -0.1992 0.5622 -0.8026
vn -0.2006 0.5599 -0.8039
vn -0.2075 0.5476 -0.8106
vn -0.1922 0.5745 -0.7956
vn -0.0077 0.5856 -0.8106
vn -0.0000 0.5856 -0.8106
vn -0.2314 0.4060 -0.8841
vn -0.2316 0.4046 -0.8847
vn -0.2282 0.4241 -0.8764
vn -0.0094 0.4261 -0.9046
vn -0.0000 0.4261 -0.9047
vn -0.3260 -0.6732 0.6637
vn -0.2882 -0.6910 0.6629
vn -0.3445 -0.6370 0.6896
vn -0.3068 -0.7080 0.6361
vn -0.2628 -0.7180 0.6445
vn -0.2108 -0.7277 0.6526
vn -0.3976 -0.3246 0.8582
vn -0.3977 -0.3245 0.8582
vn -0.4103 -0.3519 0.8414
vn -0.4101 -0.3506 0.8420
vn -0.3894 -0.3380 0.8568
vn -0.2278 -0.3744 0.8988
vn -0.4143 -0.3962 0.8194
vn -0.4143 -0.3965 0.8192
vn -0.4128 -0.4173 0.8096
vn -0.4130 -0.4163 0.8100
vn -0.4084 -0.4400 0.7997
vn -0.4082 -0.4410 0.7993
vn -0.4055 -0.4498 0.7958
vn -0.3840 -0.5736 0.7236
vn -0.3833 -0.5759 0.7221
vn -0.3729 -0.6056 0.7030
vn -0.3872 -0.5631 0.7301
vn -0.2537 -0.5892 0.7671
vn -0.3591 -0.6273 0.6911
vn -0.3583 -0.5913 0.7225
vn -0.4069 -0.6459 0.6459
vn -0.3233 -0.5656 0.7587
vn -0.3618 -0.5595 0.7456
vn -0.2593 -0.5733 0.7772
vn -0.5777 -0.7821 0.2336
vn -0.5818 -0.7799 0.2310
vn -0.5360 -0.8036 0.2586
vn -0.4343 -0.8766 0.2073
vn -0.3653 -0.9266 0.0895
vn -0.3680 -0.9287 0.0463
vn -0.3627 -0.9237 0.1236
vn -0.3700 -0.9290 0.0036
vn -0.1971 -0.9804 0.0070
vn -0.1482 0.7622 0.6301
vn -0.1692 0.7550 0.6335
vn -0.0929 0.7722 0.6286
vn -0.0768 0.7752 0.6270
vn 0.0749 0.7752 0.6273
vn 0.0907 0.7722 0.6289
vn 0.1650 0.7551 0.6345
vn 0.2007 -0.9658 0.1640
vn 0.1970 -0.9804 0.0070
vn 0.3658 -0.9307 0.0027
vn -0.7602 -0.5542 0.3392
vn -0.8620 -0.4270 0.2734
vn -0.9583 -0.2625 0.1127
vn 0.8589 0.0096 -0.5120
vn 0.7675 0.1205 -0.6297
vn 0.8451 -0.0643 -0.5307
vn 0.8642 0.0858 -0.4958
vn 0.8673 0.0658 -0.4934
vn 0.8687 0.0558 -0.4921
vn 0.8624 0.0959 -0.4970
vn 0.9558 0.1458 -0.2554
vn 0.6475 0.0108 -0.7620
vn 0.8084 -0.0064 -0.5886
vn 0.9167 0.1208 -0.3808
vn 0.5638 0.1172 -0.8176
vn 0.6111 0.1140 -0.7833
vn 0.6663 0.1126 -0.7371
vn 0.6289 0.4699 -0.6194
vn 0.6314 0.4677 -0.6185
vn 0.5596 0.5181 -0.6468
vn 0.5449 0.5249 -0.6539
vn 0.6698 0.4323 -0.6037
vn 0.7547 0.4274 -0.4977
vn 0.4951 0.5491 -0.6733
vn 0.4866 0.5676 -0.6641
vn 0.5232 0.5532 -0.6483
vn 0.5057 0.5634 -0.6534
vn 0.5666 0.5114 -0.6461
vn 0.5887 0.4838 -0.6476
vn 0.6362 0.4350 -0.6372
vn 0.6262 0.4425 -0.6419
vn 0.6724 0.3814 -0.6344
vn 0.6934 0.3313 -0.6398
vn 0.6989 0.3145 -0.6424
vn -0.7126 0.5497 0.4360
vn -0.6330 0.5411 0.5536
vn -0.8491 0.3411 0.4034
vn -0.9181 -0.3320 0.2166
vn -0.9867 -0.0985 0.1293
vn -0.9991 0.0356 0.0225
vn -0.6996 -0.4850 0.5248
vn -0.6887 -0.5330 0.4916
vn -0.6922 -0.5189 0.5016
vn -0.7729 -0.4715 0.4247
vn -0.9653 -0.1737 0.1949
vn -0.7924 -0.4870 0.3673
vn -0.6791 -0.5672 0.4660
vn -0.7699 -0.5713 0.2845
vn -0.9202 -0.2581 0.2943
vn -0.9289 -0.2364 0.2850
vn -0.9461 -0.1775 0.2709
vn -0.9392 -0.2044 0.2761
vn -0.9148 -0.2707 0.2997
vn -0.9805 -0.1575 0.1175
vn -0.9522 -0.1538 0.2641
vn -0.9537 -0.1488 0.2612
vn -0.9562 -0.1285 0.2630
vn -0.9559 -0.1342 0.2611
vn -0.9548 -0.1207 0.2717
vn -0.9538 -0.1214 0.2748
vn -0.9534 -0.1202 0.2769
vn -0.9529 -0.1210 0.2780
vn -0.9555 -0.1290 0.2652
vn -0.9561 -0.1342 0.2605
vn -0.9571 -0.1445 0.2512
vn 0.4593 -0.8686 0.1860
vn 0.4596 -0.8685 0.1857
vn 0.4840 -0.8595 0.1643
vn 0.4343 -0.8766 0.2073
vn 0.5360 -0.8037 0.2584
vn 0.3140 -0.7080 0.6326
vn 0.2557 -0.6078 0.7518
vn 0.3290 -0.5676 0.7548
vn 0.2595 -0.5734 0.7771
vn 0.3708 -0.5624 0.7390
vn 0.2500 -0.6439 0.7231
vn 0.2503 -0.6295 0.7356
vn 0.2504 -0.6280 0.7368
vn 0.2527 -0.6010 0.7583
vn 0.2528 -0.6001 0.7589
vn 0.2536 -0.5892 0.7671
vn 0.3839 -0.5639 0.7312
vn 0.2595 -0.4641 0.8469
vn 0.2595 -0.4639 0.8471
vn 0.2592 -0.4731 0.8420
vn 0.2600 -0.4410 0.8590
vn 0.2600 -0.4408 0.8591
vn 0.2594 -0.4220 0.8687
vn 0.2526 -0.3863 0.8871
vn 0.2526 -0.3864 0.8870
vn 0.2370 -0.3648 0.9004
vn 0.2372 -0.3646 0.9004
vn 0.2277 -0.3744 0.8989
vn 0.3829 -0.3371 0.8600
vn 0.2173 -0.6324 0.7435
vn 0.2108 -0.7278 0.6526
vn 0.2612 -0.7190 0.6440
vn 0.3039 -0.7100 0.6353
vn 0.0139 0.4110 -0.9115
vn 0.0532 0.3818 -0.9227
vn 0.0093 0.4261 -0.9046
vn 0.2210 0.4260 -0.8773
vn 0.0080 0.5718 -0.8204
vn 0.0083 0.5580 -0.8298
vn 0.0077 0.5856 -0.8106
vn 0.1885 0.5748 -0.7963
vn 0.0062 0.6985 -0.7156
vn 0.1281 0.6011 -0.7888
vn 0.0805 0.6161 -0.7835
vn 0.1788 0.5833 -0.7923
vn 0.2319 0.5942 -0.7701
vn 0.2721 0.6012 -0.7513
vn 0.3342 0.4767 -0.8130
vn 0.2897 0.4969 -0.8180
vn 0.3908 0.4488 -0.8036
vn 0.4922 0.4667 -0.7348
vn 0.4548 0.2160 -0.8640
vn 0.4530 0.1976 -0.8694
vn 0.4581 0.2542 -0.8518
vn 0.4485 0.1583 -0.8796
vn 0.5524 0.1191 -0.8250
vn 0.4518 -0.0718 -0.8892
vn 0.4674 -0.0641 -0.8817
vn 0.4597 -0.0729 -0.8851
vn 0.4533 -0.0747 -0.8882
vn 0.5689 -0.0802 -0.8185
vn 0.4771 -0.0680 -0.8762
vn 0.5863 0.0316 -0.8095
vn 0.7295 0.0651 -0.6809
vn -0.8339 0.1893 -0.5184
vn -0.8415 0.1778 -0.5102
vn -0.8538 0.1584 -0.4959
vn -0.8208 0.2083 -0.5320
vn -0.7403 0.3021 -0.6006
vn -0.7467 0.3547 -0.5626
vn -0.7551 0.3464 -0.5566
vn -0.7660 0.3352 -0.5485
vn -0.7063 0.4038 -0.5814
vn -0.7202 0.3860 -0.5765
vn -0.6622 0.4476 -0.6010
vn -0.6764 0.4358 -0.5937
vn -0.6322 0.4860 -0.6034
vn -0.6407 0.4715 -0.6060
vn -0.6463 0.4830 -0.5907
vn -0.6348 0.4916 -0.5961
vn -0.6759 0.4238 -0.6029
vn -0.6669 0.4492 -0.5946
vn -0.6769 0.3902 -0.6241
vn -0.6726 0.3860 -0.6314
vn -0.6349 0.4138 -0.6524
vn -0.5894 0.4446 -0.6745
vn -0.6673 0.2192 -0.7118
vn -0.6523 0.2308 -0.7219
vn -0.6904 0.2007 -0.6950
vn -0.5730 0.1372 -0.8080
vn -0.8410 0.1977 -0.5036
vn -0.9287 0.0727 -0.3636
vn -0.9324 0.0551 -0.3571
vn -0.9246 0.0903 -0.3700
vn -0.8103 -0.0102 -0.5860
vn -0.9356 0.0384 -0.3509
vn -0.9658 0.1980 -0.1674
vn -0.8718 0.1060 -0.4783
vn 0.9823 -0.0225 0.1862
vn 0.9836 -0.0089 0.1801
vn 0.9798 -0.0430 0.1952
vn 0.9869 -0.0055 0.1611
vn 0.9878 -0.0167 0.1551
vn 0.9895 -0.0367 0.1394
vn 0.9900 -0.0377 0.1356
vn 0.9904 -0.0520 0.1279
vn 0.9900 -0.0623 0.1264
vn 0.9885 -0.0811 0.1277
vn 0.9874 -0.0874 0.1317
vn 0.9847 -0.1042 0.1396
vn 0.9812 -0.1245 0.1476
vn 0.9773 -0.1425 0.1565
vn 0.9741 -0.1546 0.1652
vn 0.9698 -0.1717 0.1734
vn 0.9626 -0.1995 0.1833
vn 0.9555 -0.2247 0.1910
vn 0.9468 -0.2535 0.1982
vn 0.9426 -0.2665 0.2014
vn 0.9059 -0.3870 0.1718
vn 0.9154 -0.3698 0.1590
vn 0.8942 -0.4068 0.1867
vn 0.9251 -0.3510 0.1450
vn 0.7827 -0.5006 0.3698
vn 0.9982 0.0225 0.0555
vn 0.9979 0.0356 0.0542
vn 0.9983 0.0016 0.0576
vn 0.9974 0.0495 0.0527
vn 0.9861 -0.0989 0.1337
vn 0.9702 0.1487 0.1916
vn 0.8762 0.2861 0.3879
vn 0.6469 0.5260 0.5520
vn 0.7721 -0.5706 0.2798
vn 0.8680 -0.4411 0.2282
vn 0.7676 -0.5244 0.3685
vn -0.9234 -0.1080 -0.3683
vn -0.8899 0.0348 -0.4548
vn -0.8291 0.1333 -0.5430
vn 0.1699 -0.8898 0.4235
vn 0.1620 -0.8812 0.4442
vn 0.1783 -0.8986 0.4008
vn 0.2278 -0.8921 0.3901
vn 0.2842 -0.8817 0.3766
vn 0.2098 0.2610 -0.9423
vn 0.0883 0.3665 -0.9262
vn -0.0028 0.7202 0.6938
vn -0.0127 0.7452 0.6667
vn 0.5518 -0.7998 0.2365
vn 0.4900 -0.8715 -0.0211
vn 0.6760 -0.7290 0.1073
usemtl None
s 1
f 322/1/1 85/2/1 4/3/1 200/4/1
f 321/5/2 88/6/3 8/7/4 201/8/4
f 320/9/5 91/10/6 6/11/7 202/12/7
f 319/13/8 94/14/9 2/15/10 84/16/11
f 318/17/12 111/18/13 5/19/14 93/20/14
f 317/21/15 103/22/15 2/23/15 94/24/15
f 316/25/16 85/26/16 24/27/16 163/28/16
f 315/29/17 110/30/17 23/31/17 164/32/17
f 314/33/18 109/34/19 22/35/20 165/36/21
f 313/37/22 108/38/23 21/39/24 166/40/25
f 312/41/26 107/42/27 20/43/28 167/44/29
f 311/45/30 106/46/31 19/47/32 168/48/33
f 310/49/34 105/50/35 18/51/36 169/52/37
f 309/53/38 104/54/39 17/55/40 170/56/40
f 308/57/41 90/58/42 32/59/43 171/60/43
f 307/61/44 118/62/44 31/63/44 172/64/44
f 306/65/45 117/66/46 30/67/47 173/68/48
f 305/69/49 116/70/50 29/71/51 174/72/52
f 304/73/53 115/74/54 28/75/55 175/76/56
f 303/77/57 114/78/58 27/79/59 176/80/60
f 302/81/61 113/82/62 26/83/63 177/84/63
f 301/85/64 112/86/65 25/87/66 178/88/66
f 300/89/67 119/90/67 33/91/67 203/92/67
f 299/93/68 120/94/69 34/95/70 204/96/71
f 298/97/72 121/98/73 35/99/74 205/100/75
f 297/101/76 122/102/77 36/103/77 206/104/78
f 296/105/79 123/106/80 37/107/81 207/108/82
f 295/109/83 124/110/84 38/111/85 208/112/85
f 294/113/86 125/114/87 39/115/88 209/116/88
f 293/117/89 126/118/90 40/119/91 210/120/92
f 292/121/93 103/122/94 17/123/95 211/124/95
f 291/125/96 104/126/97 18/127/98 212/128/99
f 290/129/100 105/130/101 19/131/102 213/132/103
f 289/133/104 106/134/105 20/135/106 214/136/106
f 288/137/107 107/138/108 21/139/109 215/140/110
f 287/141/111 108/142/112 22/143/113 216/144/114
f 286/145/115 109/146/116 23/147/116 217/148/117
f 285/149/118 110/150/119 24/151/120 218/152/121
f 284/153/122 179/154/123 60/155/124 142/156/124
f 283/157/125 180/158/126 59/159/127 141/160/128
f 282/161/129 181/162/130 58/163/131 140/164/132
f 281/165/133 182/166/134 57/167/135 139/168/136
f 280/169/137 183/170/137 56/171/137 138/172/137
f 279/173/138 184/174/138 55/175/138 137/176/138
f 278/177/139 185/178/140 54/179/141 136/180/141
f 277/181/142 186/182/142 53/183/142 135/184/142
f 276/185/143 187/186/144 52/187/145 134/188/146
f 275/189/147 188/190/148 51/191/149 133/192/150
f 274/193/151 189/194/152 50/195/153 132/196/154
f 273/197/155 190/198/156 49/199/157 131/200/158
f 272/201/159 191/202/159 48/203/160 130/204/161
f 271/205/162 192/206/163 47/207/164 129/208/165
f 270/209/166 193/210/166 46/211/166 128/212/166
f 269/213/167 194/214/167 45/215/168 127/216/169
f 268/217/170 195/218/170 44/219/170 162/220/170
f 267/221/171 196/222/171 43/223/171 161/224/171
f 266/225/172 162/226/172 44/227/172 219/228/172
f 265/229/173 160/230/174 42/231/175 220/232/176
f 264/233/177 221/234/178 82/235/179 198/236/180
f 263/237/181 222/238/181 81/239/181 197/240/181
f 262/241/182 223/242/183 80/243/184 158/244/184
f 261/245/185 224/246/186 79/247/186 157/248/187
f 260/249/188 225/250/189 78/251/190 156/252/191
f 259/253/192 226/254/193 77/255/194 155/256/195
f 258/257/196 227/258/197 76/259/198 154/260/198
f 257/261/199 228/262/199 75/263/200 153/264/201
f 256/265/202 229/266/203 74/267/204 152/268/205
f 255/269/206 230/270/206 73/271/206 151/272/206
f 254/273/207 231/274/208 72/275/209 150/276/210
f 253/277/211 232/278/212 71/279/213 149/280/214
f 252/281/215 233/282/216 70/283/217 148/284/218
f 251/285/219 234/286/220 69/287/221 147/288/222
f 250/289/223 235/290/224 68/291/225 146/292/226
f 249/293/227 236/294/228 67/295/229 145/296/230
f 248/297/231 237/298/232 66/299/233 144/300/234
f 247/301/235 238/302/235 65/303/236 143/304/237
f 246/305/238 239/306/239 61/307/240 199/308/241
f 245/309/242 240/310/242 64/311/242 92/312/242
f 244/313/243 241/314/244 63/315/245 89/316/246
f 243/317/247 242/318/247 62/319/247 86/320/247
f 95/321/248 243/317/248 86/320/248 3/322/248
f 9/323/249 158/244/250 243/317/251 95/321/251
f 158/244/252 80/243/252 242/318/252 243/317/252
f 159/324/253 244/313/254 89/316/255 7/325/255
f 41/326/256 198/236/180 244/313/254 159/324/253
f 198/236/180 82/235/179 241/314/244 244/313/243
f 111/327/257 245/309/258 92/312/259 5/328/259
f 25/329/260 150/276/261 245/309/258 111/327/257
f 150/276/210 72/275/209 240/310/262 245/309/262
f 161/330/263 246/305/238 199/308/241 1/331/264
f 43/332/265 197/240/266 246/305/238 161/330/263
f 197/240/266 81/239/267 239/306/239 246/305/238
f 90/58/268 247/301/268 143/304/268 32/59/268
f 7/333/269 89/334/269 247/301/269 90/58/269
f 89/334/270 63/335/270 238/302/270 247/301/270
f 118/62/271 248/297/231 144/300/234 31/63/272
f 32/59/273 143/304/273 248/297/231 118/62/271
f 143/304/237 65/303/236 237/298/232 248/297/231
f 117/66/46 249/293/227 145/296/230 30/67/47
f 31/63/274 144/300/275 249/293/227 117/66/46
f 144/300/275 66/299/276 236/294/228 249/293/227
f 116/336/277 250/289/223 146/292/226 29/337/278
f 30/338/279 145/339/280 250/289/223 116/336/277
f 145/339/280 67/340/281 235/290/224 250/289/223
f 115/74/282 251/285/219 147/288/222 28/75/283
f 29/337/284 146/292/285 251/285/219 115/74/282
f 146/292/285 68/291/286 234/286/220 251/285/219
f 114/78/287 252/281/215 148/284/288 27/79/288
f 28/75/283 147/288/222 252/281/215 114/78/287
f 147/288/222 69/287/289 233/282/216 252/281/215
f 113/341/290 253/277/291 149/280/292 26/342/292
f 27/79/293 148/284/293 253/277/291 113/341/290
f 148/284/294 70/283/295 232/278/212 253/277/211
f 112/343/296 254/273/297 150/276/261 25/329/260
f 26/342/298 149/280/298 254/273/297 112/343/296
f 149/280/299 71/279/300 231/274/208 254/273/207
f 83/344/301 255/269/302 151/272/303 16/345/303
f 1/331/304 199/308/305 255/269/302 83/344/301
f 199/308/305 61/307/306 230/270/306 255/269/302
f 102/346/307 256/265/308 152/268/309 15/347/310
f 16/345/311 151/272/311 256/265/308 102/346/307
f 151/272/312 73/271/312 229/266/203 256/265/202
f 101/348/313 257/261/314 153/264/315 14/349/316
f 15/347/310 152/268/309 257/261/314 101/348/313
f 152/268/205 74/267/204 228/262/199 257/261/199
f 100/350/317 258/257/318 154/260/319 13/351/319
f 14/349/316 153/264/315 258/257/318 100/350/317
f 153/264/201 75/263/200 227/258/197 258/257/196
f 99/352/320 259/253/321 155/256/195 12/353/322
f 13/351/323 154/260/323 259/253/321 99/352/320
f 154/260/324 76/259/324 226/254/193 259/253/192
f 98/354/325 260/249/188 156/252/191 11/355/326
f 12/353/322 155/256/195 260/249/188 98/354/325
f 155/256/195 77/255/194 225/250/189 260/249/188
f 97/356/327 261/245/185 157/248/187 10/357/327
f 11/355/326 156/252/191 261/245/328 97/356/329
f 156/252/191 78/251/190 224/246/330 261/245/328
f 96/358/331 262/241/332 158/244/250 9/323/249
f 10/357/333 157/248/333 262/241/332 96/358/331
f 157/248/334 79/247/334 223/242/183 262/241/182
f 93/359/335 263/237/336 197/240/337 43/332/337
f 5/360/338 92/361/338 263/237/336 93/359/335
f 92/361/339 64/362/339 222/238/339 263/237/339
f 87/363/340 264/233/177 198/236/180 41/326/256
f 3/364/341 86/365/342 264/233/177 87/363/340
f 86/365/342 62/366/343 221/234/178 264/233/177
f 221/234/178 265/229/173 220/232/176 82/235/179
f 62/366/344 200/367/345 265/229/173 221/234/178
f 200/367/345 4/368/346 160/230/174 265/229/173
f 222/238/347 266/225/347 219/228/347 81/239/347
f 64/362/348 202/369/348 266/225/348 222/238/348
f 202/369/349 6/370/349 162/226/349 266/225/349
f 83/371/350 267/221/350 161/224/350 1/372/350
f 16/373/351 142/156/351 267/221/351 83/371/351
f 142/156/352 60/155/352 196/222/352 267/221/352
f 91/374/353 268/217/353 162/220/353 6/375/353
f 40/376/354 134/188/354 268/217/354 91/374/354
f 134/188/355 52/187/355 195/218/355 268/217/355
f 119/90/356 269/213/357 127/216/358 33/91/358
f 8/377/359 88/378/359 269/213/357 119/90/356
f 88/378/360 42/379/360 194/214/360 269/213/360
f 120/94/361 270/209/361 128/212/361 34/95/361
f 33/91/362 127/216/362 270/209/362 120/94/362
f 127/216/169 45/215/168 193/210/363 270/209/363
f 121/98/73 271/205/162 129/208/165 35/99/74
f 34/95/364 128/212/365 271/205/162 121/98/73
f 128/212/365 46/211/366 192/206/163 271/205/162
f 122/102/367 272/201/368 130/204/369 36/103/370
f 35/99/371 129/208/371 272/380/368 122/381/367
f 129/208/372 47/207/372 191/382/372 272/380/372
f 123/106/373 273/197/155 131/200/158 37/107/374
f 36/103/370 130/204/369 273/197/155 123/106/373
f 130/204/161 48/203/160 190/198/156 273/197/155
f 124/110/375 274/193/376 132/196/377 38/111/378
f 37/107/374 131/200/158 274/193/376 124/110/375
f 131/200/158 49/199/157 189/194/152 274/193/151
f 125/383/379 275/189/380 133/192/150 39/384/381
f 38/385/378 132/386/377 275/189/380 125/383/379
f 132/386/154 50/387/153 188/190/148 275/189/147
f 126/388/382 276/185/143 134/188/146 40/376/383
f 39/384/381 133/192/150 276/185/143 126/388/382
f 133/192/150 51/191/149 187/186/144 276/185/143
f 95/389/384 277/390/384 135/391/384 9/392/384
f 3/364/385 87/363/385 277/390/385 95/389/385
f 87/393/386 41/394/386 186/182/386 277/181/386
f 96/395/387 278/177/387 136/180/387 10/396/387
f 9/397/388 135/184/388 278/177/388 96/395/388
f 135/184/389 53/183/389 185/178/140 278/177/139
f 97/398/390 279/173/390 137/176/391 11/399/392
f 10/396/393 136/180/393 279/173/393 97/398/393
f 136/180/394 54/179/394 184/174/394 279/173/394
f 98/400/395 280/169/395 138/172/395 12/401/395
f 11/399/392 137/176/391 280/169/396 98/400/396
f 137/402/397 55/403/397 183/404/397 280/405/397
f 99/406/398 281/165/399 139/168/400 13/407/401
f 12/401/402 138/172/402 281/165/399 99/406/398
f 138/172/403 56/171/403 182/166/134 281/165/133
f 100/408/404 282/161/405 140/164/406 14/409/407
f 13/407/401 139/168/400 282/161/405 100/408/404
f 139/168/136 57/167/135 181/162/130 282/161/129
f 101/410/408 283/157/409 141/160/410 15/411/411
f 14/409/407 140/164/406 283/157/409 101/410/408
f 140/164/132 58/163/131 180/158/126 283/157/125
f 102/412/412 284/153/413 142/156/414 16/373/414
f 15/411/411 141/160/410 284/153/413 102/412/412
f 141/160/128 59/159/127 179/154/123 284/153/122
f 223/242/415 285/149/416 218/152/417 80/243/417
f 79/247/418 217/148/418 285/149/416 223/242/415
f 217/148/419 23/147/419 110/150/119 285/149/118
f 224/246/420 286/145/115 217/148/117 79/247/420
f 78/251/421 216/144/114 286/145/422 224/246/423
f 216/144/114 22/143/113 109/146/424 286/145/422
f 225/250/425 287/141/111 216/144/114 78/251/421
f 77/255/426 215/140/427 287/141/111 225/250/425
f 215/140/110 21/139/109 108/142/112 287/141/111
f 226/254/428 288/137/429 215/140/427 77/255/426
f 76/259/430 214/136/430 288/137/429 226/254/428
f 214/136/431 20/135/431 107/138/108 288/137/107
f 227/258/432 289/133/433 214/136/434 76/259/434
f 75/263/435 213/132/436 289/133/433 227/258/432
f 213/132/103 19/131/102 106/134/105 289/133/104
f 228/262/437 290/129/437 213/132/436 75/263/435
f 74/267/438 212/128/439 290/129/437 228/262/437
f 212/128/99 18/127/98 105/130/101 290/129/100
f 229/266/440 291/125/441 212/128/439 74/267/438
f 73/271/442 211/124/442 291/125/441 229/266/440
f 211/124/443 17/123/443 104/126/97 291/125/96
f 230/270/444 292/121/444 211/124/444 73/271/444
f 61/307/445 84/16/446 292/121/93 230/270/445
f 84/16/446 2/15/447 103/122/94 292/121/93
f 231/274/208 293/117/448 210/120/449 72/275/209
f 71/279/300 209/116/450 293/117/448 231/274/208
f 209/116/451 39/115/451 126/118/90 293/117/89
f 232/278/212 294/113/452 209/116/453 71/279/213
f 70/283/295 208/112/454 294/113/452 232/278/212
f 208/112/455 38/111/455 125/114/87 294/113/86
f 233/282/216 295/109/83 208/112/456 70/283/217
f 69/287/289 207/108/82 295/109/83 233/282/216
f 207/108/82 37/107/81 124/110/84 295/109/83
f 234/286/457 296/105/79 207/108/82 69/287/458
f 68/291/459 206/104/460 296/105/79 234/286/457
f 206/104/460 36/103/461 123/106/80 296/105/79
f 235/290/462 297/101/76 206/104/78 68/291/463
f 67/340/464 205/413/464 297/101/76 235/290/462
f 205/413/465 35/414/465 122/102/465 297/101/465
f 236/415/466 298/97/467 205/100/468 67/416/468
f 66/417/469 204/96/469 298/97/467 236/415/466
f 204/96/470 34/95/364 121/98/73 298/97/72
f 237/418/471 299/93/68 204/96/71 66/417/472
f 65/419/473 203/92/474 299/93/68 237/418/471
f 203/92/475 33/91/475 120/94/69 299/93/68
f 238/420/476 300/89/476 203/92/474 65/419/473
f 63/421/477 201/422/477 300/89/477 238/420/477
f 201/422/478 8/377/478 119/90/478 300/89/478
f 179/154/479 301/85/480 178/88/481 60/155/481
f 59/159/482 177/84/482 301/85/480 179/154/479
f 177/84/483 26/83/483 112/86/65 301/85/64
f 180/158/484 302/81/485 177/84/486 59/159/486
f 58/163/487 176/423/488 302/81/485 180/158/484
f 176/423/60 27/424/59 113/82/62 302/81/61
f 181/162/489 303/425/490 176/423/488 58/163/487
f 57/426/491 175/76/492 303/77/490 181/427/489
f 175/76/56 28/75/55 114/78/58 303/77/57
f 182/428/493 304/73/494 175/76/492 57/426/491
f 56/429/495 174/430/496 304/73/494 182/428/493
f 174/430/52 29/337/51 115/74/54 304/73/53
f 183/170/497 305/69/49 174/72/496 56/171/495
f 55/431/498 173/432/499 305/433/49 183/434/497
f 173/432/499 30/338/500 116/336/50 305/433/49
f 184/174/501 306/65/45 173/68/48 55/175/502
f 54/179/503 172/64/503 306/65/45 184/174/501
f 172/64/504 31/63/274 117/66/46 306/65/45
f 185/178/505 307/61/505 172/64/505 54/179/505
f 53/183/506 171/60/507 307/61/508 185/178/508
f 171/60/509 32/59/509 118/62/509 307/61/509
f 186/182/510 308/57/510 171/60/507 53/183/506
f 41/394/511 159/435/511 308/57/511 186/182/511
f 159/435/512 7/333/512 90/58/42 308/57/41
f 187/186/513 309/53/514 170/56/515 52/187/515
f 51/191/516 169/52/517 309/53/514 187/186/513
f 169/52/37 18/51/36 104/54/39 309/53/38
f 188/190/518 310/49/519 169/52/517 51/191/516
f 50/387/520 168/48/521 310/49/519 188/190/518
f 168/48/33 19/47/32 105/50/35 310/49/34
f 189/436/522 311/45/523 168/48/521 50/387/520
f 49/437/524 167/44/525 311/45/523 189/436/522
f 167/44/29 20/43/28 106/46/31 311/45/30
f 190/438/526 312/41/527 167/44/525 49/437/524
f 48/439/528 166/40/529 312/41/527 190/438/526
f 166/40/25 21/39/24 107/42/27 312/41/26
f 191/382/530 313/37/531 166/40/529 48/439/528
f 47/207/532 165/36/532 313/37/531 191/382/530
f 165/36/21 22/35/20 108/38/23 313/37/22
f 192/206/533 314/33/534 165/36/535 47/207/535
f 46/211/536 164/32/536 314/33/534 192/206/533
f 164/32/537 23/31/537 109/34/19 314/33/18
f 193/210/538 315/29/539 164/32/540 46/211/540
f 45/215/541 163/440/541 315/29/539 193/210/538
f 163/440/542 24/441/542 110/30/542 315/29/542
f 194/214/543 316/442/543 163/440/543 45/215/543
f 42/379/544 160/443/544 316/442/544 194/214/544
f 160/230/545 4/368/545 85/26/545 316/25/545
f 195/218/546 317/21/546 94/24/546 44/219/546
f 52/187/547 170/56/547 317/21/547 195/218/547
f 170/56/548 17/55/548 103/22/548 317/21/548
f 196/222/549 318/17/549 93/20/549 43/223/549
f 60/155/550 178/88/550 318/17/550 196/222/550
f 178/88/551 25/87/551 111/18/13 318/17/12
f 239/306/552 319/13/8 84/16/11 61/307/553
f 81/239/554 219/228/555 319/13/8 239/306/552
f 219/228/555 44/227/556 94/14/9 319/13/8
f 240/310/557 320/9/557 202/12/557 64/311/557
f 72/275/209 210/120/449 320/9/558 240/310/558
f 210/120/92 40/119/91 91/10/6 320/9/5
f 241/314/244 321/5/559 201/8/560 63/315/245
f 82/235/179 220/232/176 321/5/559 241/314/244
f 220/232/176 42/231/175 88/6/3 321/5/2
f 242/318/561 322/1/561 200/4/561 62/319/561
f 80/243/562 218/152/562 322/1/562 242/318/562
f 218/152/121 24/151/120 85/2/563 322/1/563
