# Blender MTL File: 'schwarminator9000.blend'
# Material Count: 1

newmtl None
Ns 500.000001
Ka 1.000000 1.000000 1.000000
Kd 0.800000 0.800000 0.800000
Ks 0.800000 0.800000 0.800000
Ke 0.000000 0.000000 0.000000
Ni 1.450000
d 1.000000
illum 2
