# Blender v2.90.1 OBJ File: 'demoObjects.blend'
# www.blender.org
mtllib target.mtl
o Target_Cube.025
v -17.973015 8.128569 8.082952
v -17.973015 12.082080 7.677058
v -17.973015 8.128569 5.131476
v -17.973015 12.082080 5.537372
v -17.793015 8.128569 8.082952
v -17.793015 12.082080 7.677058
v -17.793015 8.128569 5.131476
v -17.793015 12.082080 5.537372
v -17.973015 12.082080 7.161779
v -17.973015 12.082080 6.052651
v -17.793015 12.082080 7.161779
v -17.793015 12.082080 6.052651
v -17.973015 13.209263 7.161779
v -17.973015 13.209263 6.052651
v -17.793015 13.209263 7.161779
v -17.793015 13.209263 6.052651
v -17.916594 4.757067 6.706670
v -17.916594 8.220411 6.706670
v -17.916594 4.757067 6.558549
v -17.916594 8.220411 6.558549
v -17.856592 4.757067 6.706670
v -17.856592 8.220411 6.706670
v -17.856592 4.757067 6.558549
v -17.856592 8.220411 6.558549
vt 0.375000 0.000000
vt 0.625000 0.000000
vt 0.625000 0.250000
vt 0.375000 0.250000
vt 0.625000 0.500000
vt 0.375000 0.500000
vt 0.625000 0.750000
vt 0.375000 0.750000
vt 0.625000 1.000000
vt 0.375000 1.000000
vt 0.125000 0.500000
vt 0.125000 0.750000
vt 0.625000 0.000000
vt 0.625000 0.250000
vt 0.625000 1.000000
vt 0.625000 0.750000
vt 0.625000 0.750000
vt 0.625000 1.000000
vt 0.625000 0.500000
vt 0.625000 0.500000
vt 0.875000 0.500000
vt 0.875000 0.750000
vt 0.625000 0.250000
vt 0.625000 0.000000
vt 0.375000 0.000000
vt 0.625000 0.000000
vt 0.625000 0.250000
vt 0.375000 0.250000
vt 0.625000 0.500000
vt 0.375000 0.500000
vt 0.625000 0.750000
vt 0.375000 0.750000
vt 0.625000 1.000000
vt 0.375000 1.000000
vt 0.125000 0.500000
vt 0.125000 0.750000
vt 0.875000 0.500000
vt 0.875000 0.750000
vn -1.0000 0.0000 0.0000
vn 0.0000 0.1021 -0.9948
vn 1.0000 -0.0000 0.0000
vn 0.0000 0.1021 0.9948
vn 0.0000 -1.0000 0.0000
vn 0.0000 0.0000 1.0000
vn 0.0000 1.0000 0.0000
vn 0.0000 0.0000 -1.0000
usemtl None
s off
f 1/1/1 2/2/1 4/3/1 3/4/1
f 3/4/2 4/3/2 8/5/2 7/6/2
f 7/6/3 8/5/3 6/7/3 5/8/3
f 5/8/4 6/7/4 2/9/4 1/10/4
f 3/11/5 7/6/5 5/8/5 1/12/5
f 4/3/5 2/2/5 9/13/5 10/14/5
f 9/15/6 11/16/6 15/17/6 13/18/6
f 2/9/7 6/7/7 11/16/7 9/15/7
f 8/5/7 4/3/7 10/14/7 12/19/7
f 6/7/6 8/5/6 12/19/6 11/16/6
f 16/20/7 14/21/7 13/22/7 15/17/7
f 12/19/8 10/14/8 14/23/8 16/20/8
f 11/16/3 12/19/3 16/20/3 15/17/3
f 10/14/1 9/13/1 13/24/1 14/23/1
f 17/25/1 18/26/1 20/27/1 19/28/1
f 19/28/8 20/27/8 24/29/8 23/30/8
f 23/30/3 24/29/3 22/31/3 21/32/3
f 21/32/6 22/31/6 18/33/6 17/34/6
f 19/35/5 23/30/5 21/32/5 17/36/5
f 24/29/7 20/37/7 18/38/7 22/31/7
