%YAML 1.1
%TAG !u! tag:unity3d.com,2011:
--- !u!114 &11400000
MonoBehaviour:
  m_ObjectHideFlags: 0
  m_CorrespondingSourceObject: {fileID: 0}
  m_PrefabInstance: {fileID: 0}
  m_PrefabAsset: {fileID: 0}
  m_GameObject: {fileID: 0}
  m_Enabled: 1
  m_EditorHideFlags: 0
  m_Script: {fileID: 11500000, guid: 06293c78a57dd5446918d70188a4ad26, type: 3}
  m_Name: AlienWeaponTest1
  m_EditorClassIdentifier: 
  aw_Name: TestName123
  aw_CreatorName1: Ich
  aw_CreatorName2: Du
  aw_isBeamWeapon: 0
  aw_isFlamethrower: 0
  aw_IsSword: 0
  aw_freezes: 1
  aw_FireModes: 2
  aw_UseHitScan: 0
  aw_isTransformable: 1
  aw_TransformedWeapon: {fileID: 11400000, guid: 4a9cc6efa87f4e74ab4d549ddf8799cc, type: 2}
  aw_TransformTime: 1
  aw_ComboTime: 1
  aw_Damage: 20
  aw_TransformAdjustment: {x: 2.3, y: -2, z: 2.7}
  aw_RotationAdjustment: {x: 0, y: 0, z: 0}
  aw_Range: 200
  aw_AmmoCapacity: 0
  aw_AmmoUsedPerSecond: 10
  aw_FireRate:
  - 600
  - 1000
  - 0
  aw_MaxRoundsPerTrigger: 000000000300000000000000
  aw_ReloadTime: 2
  aw_SpreadFactor:
  - 0.003
  - 0
  - 0
  aw_MaximumSpread:
  - 0.03
  - 0
  - 0
  aw_ScopingSpreadMultiplier:
  - 0.2
  - 0
  - 0
  aw_RunningSpreadMultiplier:
  - 2
  - 0
  - 0
  aw_SpreadResetTime:
  - 1
  - 0
  - 0
  aw_ChargeTime: 2
  aw_ScopeZoomLevel: 1.5
  aw_ScopeMouseSensitivity: 0.5
  aw_ScopeMovespeedModifier: 0.6
  aw_HasScopeOverlay: 0
  aw_ScopeOverlayImage: {fileID: 0}
  aw_Mesh: {fileID: -2432090755550338912, guid: 8e8ddf7782da21440810513bc12d9eee, type: 3}
  aw_Material:
  - {fileID: 2100000, guid: 1521f43f22c2b3c48aec6d5481ed0037, type: 2}
  aw_Object: {fileID: 919132149155446097, guid: 8e8ddf7782da21440810513bc12d9eee, type: 3}
  aw_ImpactDelay: 0
  aw_Bullet: {fileID: 9182287015515300172, guid: 8ee3cf2d5ad332641a3b0a919e1ffcd3, type: 3}
  aw_BulletInstantiationPoint: {x: 0, y: 1, z: 2}
  aw_BulletSpeed: 400
  aw_ImpactEffect: {fileID: 3676488640113811976, guid: c38718a9a1b6c84498fceff33cb18d8a, type: 3}
  aw_ImpactEffect2: {fileID: 0}
  aw_ShootSound: {fileID: 8300000, guid: eca171727f661744186bb19a19e422b8, type: 3}
  aw_ShootSoundVolume: 0.7
  aw_HitSound: {fileID: 8300000, guid: 10ba250ad962cfd4eb937289a7d58653, type: 3}
  aw_HitSoundVolume: 1
  aw_AnimationController: {fileID: 9100000, guid: c0f008d9763c7ad49aaf15da0e50d030, type: 2}
