%YAML 1.1
%TAG !u! tag:unity3d.com,2011:
--- !u!64 &5287662610840270261
MeshCollider:
  m_ObjectHideFlags: 0
  m_CorrespondingSourceObject: {fileID: 0}
  m_PrefabInstance: {fileID: 0}
  m_PrefabAsset: {fileID: 0}
  m_GameObject: {fileID: 3508531953212778897}
  m_Material: {fileID: 0}
  m_IsTrigger: 0
  m_Enabled: 1
  serializedVersion: 4
  m_Convex: 0
  m_CookingOptions: 30
  m_Mesh: {fileID: -2432090755550338912, guid: da5570e2c1df15041a6b60b92831c111, type: 3}
--- !u!1001 &4754795193624210457
PrefabInstance:
  m_ObjectHideFlags: 0
  serializedVersion: 2
  m_Modification:
    m_TransformParent: {fileID: 0}
    m_Modifications:
    - target: {fileID: -8679921383154817045, guid: da5570e2c1df15041a6b60b92831c111, type: 3}
      propertyPath: m_LocalPosition.x
      value: -230.15
      objectReference: {fileID: 0}
    - target: {fileID: -8679921383154817045, guid: da5570e2c1df15041a6b60b92831c111, type: 3}
      propertyPath: m_LocalPosition.y
      value: 7
      objectReference: {fileID: 0}
    - target: {fileID: -8679921383154817045, guid: da5570e2c1df15041a6b60b92831c111, type: 3}
      propertyPath: m_LocalPosition.z
      value: 38.18
      objectReference: {fileID: 0}
    - target: {fileID: -8679921383154817045, guid: da5570e2c1df15041a6b60b92831c111, type: 3}
      propertyPath: m_LocalRotation.x
      value: -0
      objectReference: {fileID: 0}
    - target: {fileID: -8679921383154817045, guid: da5570e2c1df15041a6b60b92831c111, type: 3}
      propertyPath: m_LocalRotation.y
      value: 0.3420201
      objectReference: {fileID: 0}
    - target: {fileID: -8679921383154817045, guid: da5570e2c1df15041a6b60b92831c111, type: 3}
      propertyPath: m_LocalRotation.z
      value: -0
      objectReference: {fileID: 0}
    - target: {fileID: -8679921383154817045, guid: da5570e2c1df15041a6b60b92831c111, type: 3}
      propertyPath: m_LocalRotation.w
      value: 0.9396927
      objectReference: {fileID: 0}
    - target: {fileID: -8679921383154817045, guid: da5570e2c1df15041a6b60b92831c111, type: 3}
      propertyPath: m_RootOrder
      value: 0
      objectReference: {fileID: 0}
    - target: {fileID: -8679921383154817045, guid: da5570e2c1df15041a6b60b92831c111, type: 3}
      propertyPath: m_LocalEulerAnglesHint.x
      value: 0
      objectReference: {fileID: 0}
    - target: {fileID: -8679921383154817045, guid: da5570e2c1df15041a6b60b92831c111, type: 3}
      propertyPath: m_LocalEulerAnglesHint.y
      value: 40
      objectReference: {fileID: 0}
    - target: {fileID: -8679921383154817045, guid: da5570e2c1df15041a6b60b92831c111, type: 3}
      propertyPath: m_LocalEulerAnglesHint.z
      value: 0
      objectReference: {fileID: 0}
    - target: {fileID: -7635826562936255635, guid: da5570e2c1df15041a6b60b92831c111, type: 3}
      propertyPath: m_Materials.Array.data[0]
      value: 
      objectReference: {fileID: 2100000, guid: 55e5aeedc4f322f46b14a9d1c3d455c2, type: 2}
    - target: {fileID: 919132149155446097, guid: da5570e2c1df15041a6b60b92831c111, type: 3}
      propertyPath: m_Name
      value: railing_2_better Variant
      objectReference: {fileID: 0}
    m_RemovedComponents: []
  m_SourcePrefab: {fileID: 100100000, guid: da5570e2c1df15041a6b60b92831c111, type: 3}
--- !u!1 &3508531953212778897 stripped
GameObject:
  m_CorrespondingSourceObject: {fileID: 8164078558771037576, guid: da5570e2c1df15041a6b60b92831c111, type: 3}
  m_PrefabInstance: {fileID: 4754795193624210457}
  m_PrefabAsset: {fileID: 0}
