# Blender v2.90.1 OBJ File: 'demoObjects.blend'
# www.blender.org
mtllib tables_better.mtl
o Tisch_Cube
v 3.528807 -2.530797 1.504639
v 4.976710 2.530785 2.350395
v -3.510354 -2.530797 1.504639
v -4.958257 2.530785 2.350396
v 3.528807 -2.530797 -1.504639
v 4.976710 2.530785 -2.350395
v -3.510354 -2.530797 -1.504638
v -4.958257 2.530785 -2.350395
v 1.686364 -0.000006 1.204940
v -1.667911 -0.000006 1.204941
v -1.667911 -0.000006 -1.204940
v 1.686364 -0.000006 -1.204941
v -6.406159 -2.530797 1.504639
v -4.958257 2.530785 2.350396
v -13.445320 -2.530797 1.504639
v -14.893224 2.530785 2.350396
v -6.406159 -2.530797 -1.504638
v -4.958257 2.530785 -2.350395
v -13.445320 -2.530797 -1.504638
v -14.893224 2.530785 -2.350394
v -8.248602 -0.000006 1.204941
v -11.602878 -0.000006 1.204941
v -11.602878 -0.000006 -1.204940
v -8.248602 -0.000006 -1.204940
v -16.341125 -2.530797 1.504639
v -14.893224 2.530785 2.350396
v -23.380287 -2.530797 1.504640
v -24.828188 2.530785 2.350397
v -16.341125 -2.530797 -1.504638
v -14.893224 2.530785 -2.350394
v -23.380287 -2.530797 -1.504637
v -24.828188 2.530785 -2.350394
v -18.183569 -0.000006 1.204941
v -21.537844 -0.000006 1.204941
v -21.537844 -0.000006 -1.204940
v -18.183569 -0.000006 -1.204940
v -26.276091 -2.530797 1.504640
v -24.828188 2.530785 2.350397
v -33.315254 -2.530797 1.504640
v -34.763153 2.530785 2.350397
v -26.276091 -2.530797 -1.504637
v -24.828188 2.530785 -2.350394
v -33.315254 -2.530797 -1.504637
v -34.763153 2.530785 -2.350394
v -28.118534 -0.000006 1.204942
v -31.472809 -0.000006 1.204942
v -31.472809 -0.000006 -1.204939
v -28.118534 -0.000006 -1.204939
vt 0.500000 0.000000
vt 0.625000 0.000000
vt 0.625000 0.250000
vt 0.500000 0.250000
vt 0.625000 0.500000
vt 0.500000 0.500000
vt 0.625000 0.750000
vt 0.500000 0.750000
vt 0.625000 1.000000
vt 0.500000 1.000000
vt 0.125000 0.500000
vt 0.375000 0.500000
vt 0.375000 0.750000
vt 0.125000 0.750000
vt 0.875000 0.500000
vt 0.875000 0.750000
vt 0.375000 1.000000
vt 0.375000 0.250000
vt 0.375000 0.000000
vt 0.500000 0.000000
vt 0.625000 0.000000
vt 0.625000 0.250000
vt 0.500000 0.250000
vt 0.625000 0.500000
vt 0.500000 0.500000
vt 0.625000 0.750000
vt 0.500000 0.750000
vt 0.625000 1.000000
vt 0.500000 1.000000
vt 0.125000 0.500000
vt 0.375000 0.500000
vt 0.375000 0.750000
vt 0.125000 0.750000
vt 0.875000 0.500000
vt 0.875000 0.750000
vt 0.375000 1.000000
vt 0.375000 0.250000
vt 0.375000 0.000000
vt 0.500000 0.000000
vt 0.625000 0.000000
vt 0.625000 0.250000
vt 0.500000 0.250000
vt 0.625000 0.500000
vt 0.500000 0.500000
vt 0.625000 0.750000
vt 0.500000 0.750000
vt 0.625000 1.000000
vt 0.500000 1.000000
vt 0.125000 0.500000
vt 0.375000 0.500000
vt 0.375000 0.750000
vt 0.125000 0.750000
vt 0.875000 0.500000
vt 0.875000 0.750000
vt 0.375000 1.000000
vt 0.375000 0.250000
vt 0.375000 0.000000
vt 0.500000 0.000000
vt 0.625000 0.000000
vt 0.625000 0.250000
vt 0.500000 0.250000
vt 0.625000 0.500000
vt 0.500000 0.500000
vt 0.625000 0.750000
vt 0.500000 0.750000
vt 0.625000 1.000000
vt 0.500000 1.000000
vt 0.125000 0.500000
vt 0.375000 0.500000
vt 0.375000 0.750000
vt 0.125000 0.750000
vt 0.875000 0.500000
vt 0.875000 0.750000
vt 0.375000 1.000000
vt 0.375000 0.250000
vt 0.375000 0.000000
vn 0.0000 -0.4123 0.9110
vn -0.6097 -0.7927 0.0000
vn -0.0000 -0.4123 -0.9110
vn 0.6097 -0.7927 0.0000
vn 0.0000 -1.0000 0.0000
vn 0.0000 1.0000 0.0000
vn 0.8085 0.5886 0.0000
vn -0.0000 0.1176 -0.9931
vn -0.8085 0.5886 0.0000
vn 0.0000 0.1176 0.9931
usemtl None
s off
f 9/1/1 2/2/1 4/3/1 10/4/1
f 10/4/2 4/3/2 8/5/2 11/6/2
f 11/6/3 8/5/3 6/7/3 12/8/3
f 12/8/4 6/7/4 2/9/4 9/10/4
f 3/11/5 7/12/5 5/13/5 1/14/5
f 8/5/6 4/15/6 2/16/6 6/7/6
f 5/13/7 12/8/7 9/10/7 1/17/7
f 7/12/8 11/6/8 12/8/8 5/13/8
f 3/18/9 10/4/9 11/6/9 7/12/9
f 1/19/10 9/1/10 10/4/10 3/18/10
f 21/20/1 14/21/1 16/22/1 22/23/1
f 22/23/2 16/22/2 20/24/2 23/25/2
f 23/25/3 20/24/3 18/26/3 24/27/3
f 24/27/4 18/26/4 14/28/4 21/29/4
f 15/30/5 19/31/5 17/32/5 13/33/5
f 20/24/6 16/34/6 14/35/6 18/26/6
f 17/32/7 24/27/7 21/29/7 13/36/7
f 19/31/8 23/25/8 24/27/8 17/32/8
f 15/37/9 22/23/9 23/25/9 19/31/9
f 13/38/10 21/20/10 22/23/10 15/37/10
f 33/39/1 26/40/1 28/41/1 34/42/1
f 34/42/2 28/41/2 32/43/2 35/44/2
f 35/44/3 32/43/3 30/45/3 36/46/3
f 36/46/4 30/45/4 26/47/4 33/48/4
f 27/49/5 31/50/5 29/51/5 25/52/5
f 32/43/6 28/53/6 26/54/6 30/45/6
f 29/51/7 36/46/7 33/48/7 25/55/7
f 31/50/8 35/44/8 36/46/8 29/51/8
f 27/56/9 34/42/9 35/44/9 31/50/9
f 25/57/10 33/39/10 34/42/10 27/56/10
f 45/58/1 38/59/1 40/60/1 46/61/1
f 46/61/2 40/60/2 44/62/2 47/63/2
f 47/63/3 44/62/3 42/64/3 48/65/3
f 48/65/4 42/64/4 38/66/4 45/67/4
f 39/68/5 43/69/5 41/70/5 37/71/5
f 44/62/6 40/72/6 38/73/6 42/64/6
f 41/70/7 48/65/7 45/67/7 37/74/7
f 43/69/8 47/63/8 48/65/8 41/70/8
f 39/75/9 46/61/9 47/63/9 43/69/9
f 37/76/10 45/58/10 46/61/10 39/75/10
